{
    "name": "BlogPost",
    "fields": [
        {
            "fieldName": "postTitle",
            "fieldType": "String",
            "fieldValidateRules": [
                "required",
                "maxlength"
            ],
            "fieldValidateRulesMaxlength": 256
        },
        {
            "fieldName": "postStatus",
            "fieldType": "BlogStatus",
            "fieldValues": "PUBLISHED,DRAFT,DELETED"
        },
        {
            "fieldName": "postCreatedDate",
            "fieldType": "Instant"
        },
        {
            "fieldName": "postSeenCount",
            "fieldType": "Long"
        },
        {
            "fieldName": "postContent",
            "fieldType": "byte[]",
            "fieldTypeBlobContent": "text"
        }
    ],
    "relationships": [
        {
            "relationshipType": "many-to-one",
            "relationshipName": "category",
            "otherEntityName": "category",
            "otherEntityField": "categoryName"
        },
        {
            "relationshipType": "many-to-one",
            "relationshipName": "user",
            "otherEntityName": "user",
            "otherEntityField": "login"
        },
        {
            "relationshipType": "many-to-one",
            "relationshipName": "project",
            "otherEntityName": "project",
            "otherEntityField": "projectName"
        }
    ],
    "changelogDate": "20180726162204",
    "javadoc": "BlogPost entity",
    "entityTableName": "blog_post",
    "dto": "no",
    "pagination": "pagination",
    "service": "serviceClass",
    "jpaMetamodelFiltering": true,
    "fluentMethods": true,
    "clientRootFolder": "",
    "applications": "*"
}