{
    "name": "Request",
    "fields": [
        {
            "fieldName": "requestFirstName",
            "fieldType": "String",
            "fieldValidateRules": [
                "required",
                "maxlength"
            ],
            "fieldValidateRulesMaxlength": 128
        },
        {
            "fieldName": "requestLastName",
            "fieldType": "String",
            "fieldValidateRules": [
                "required",
                "maxlength"
            ],
            "fieldValidateRulesMaxlength": 128
        },
        {
            "fieldName": "requestEmail",
            "fieldType": "String",
            "fieldValidateRules": [
                "required"
            ]
        },
        {
            "fieldName": "requestPhone",
            "fieldType": "String",
            "fieldValidateRules": [
                "required",
                "maxlength"
            ],
            "fieldValidateRulesMaxlength": 16
        },
        {
            "fieldName": "requestGetAnalysis",
            "fieldType": "Boolean"
        },
        {
            "fieldName": "requestGetPrice",
            "fieldType": "Boolean"
        },
        {
            "fieldName": "requestPageUrl",
            "fieldType": "String"
        },
        {
            "fieldName": "resourceId",
            "fieldType": "Long"
        },
        {
            "fieldName": "resourceType",
            "fieldType": "ResourceType",
            "fieldValues": "PROJECT,PROPERTY,EMPLOYEE,RESIDENTIAL_AREA"
        },
        {
            "fieldName": "requestType",
            "fieldType": "RequestType",
            "fieldValues": "MEETING,PRICE,QUESTION,OTHER"
        },
        {
            "fieldName": "requestMeetingDate",
            "fieldType": "LocalDate"
        },
        {
            "fieldName": "requestQuestion",
            "fieldType": "String"
        },
        {
            "fieldName": "requestPrice",
            "fieldType": "Double",
            "fieldValidateRules": [
                "min"
            ],
            "fieldValidateRulesMin": 0
        }
    ],
    "relationships": [
        {
            "relationshipType": "many-to-one",
            "relationshipName": "sender",
            "otherEntityName": "user",
            "otherEntityField": "login"
        },
        {
            "relationshipType": "many-to-one",
            "relationshipName": "receiver",
            "otherEntityName": "user",
            "otherEntityField": "login"
        }
    ],
    "changelogDate": "20180726162206",
    "javadoc": "Request entity",
    "entityTableName": "request",
    "dto": "no",
    "pagination": "no",
    "service": "no",
    "jpaMetamodelFiltering": false,
    "fluentMethods": true,
    "clientRootFolder": "",
    "applications": "*"
}